%!PS-Adobe-3.0 EPSF-3.0
%%Creator: (MATLAB, The Mathworks, Inc. Version 9.1.0.441655 \(R2016b\). Operating System: Linux)
%%Title: ./sched_eval.eps
%%CreationDate: 2017-01-21T12:41:25
%%Pages: (atend)
%%BoundingBox:    34    95   196   243
%%LanguageLevel: 3
%%EndComments
%%BeginProlog
%%BeginResource: procset (Apache XML Graphics Std ProcSet) 1.2 0
%%Version: 1.2 0
%%Copyright: (Copyright 2001-2003,2010 The Apache Software Foundation. License terms: http://www.apache.org/licenses/LICENSE-2.0)
/bd{bind def}bind def
/ld{load def}bd
/GR/grestore ld
/M/moveto ld
/LJ/setlinejoin ld
/C/curveto ld
/f/fill ld
/LW/setlinewidth ld
/GC/setgray ld
/t/show ld
/N/newpath ld
/CT/concat ld
/cp/closepath ld
/S/stroke ld
/L/lineto ld
/CC/setcmykcolor ld
/A/ashow ld
/GS/gsave ld
/RC/setrgbcolor ld
/RM/rmoveto ld
/ML/setmiterlimit ld
/re {4 2 roll M
1 index 0 rlineto
0 exch rlineto
neg 0 rlineto
cp } bd
/_ctm matrix def
/_tm matrix def
/BT { _ctm currentmatrix pop matrix _tm copy pop 0 0 moveto } bd
/ET { _ctm setmatrix } bd
/iTm { _ctm setmatrix _tm concat } bd
/Tm { _tm astore pop iTm 0 0 moveto } bd
/ux 0.0 def
/uy 0.0 def
/F {
  /Tp exch def
  /Tf exch def
  Tf findfont Tp scalefont setfont
  /cf Tf def  /cs Tp def
} bd
/ULS {currentpoint /uy exch def /ux exch def} bd
/ULE {
  /Tcx currentpoint pop def
  gsave
  newpath
  cf findfont cs scalefont dup
  /FontMatrix get 0 get /Ts exch def /FontInfo get dup
  /UnderlinePosition get Ts mul /To exch def
  /UnderlineThickness get Ts mul /Tt exch def
  ux uy To add moveto  Tcx uy To add lineto
  Tt setlinewidth stroke
  grestore
} bd
/OLE {
  /Tcx currentpoint pop def
  gsave
  newpath
  cf findfont cs scalefont dup
  /FontMatrix get 0 get /Ts exch def /FontInfo get dup
  /UnderlinePosition get Ts mul /To exch def
  /UnderlineThickness get Ts mul /Tt exch def
  ux uy To add cs add moveto Tcx uy To add cs add lineto
  Tt setlinewidth stroke
  grestore
} bd
/SOE {
  /Tcx currentpoint pop def
  gsave
  newpath
  cf findfont cs scalefont dup
  /FontMatrix get 0 get /Ts exch def /FontInfo get dup
  /UnderlinePosition get Ts mul /To exch def
  /UnderlineThickness get Ts mul /Tt exch def
  ux uy To add cs 10 mul 26 idiv add moveto Tcx uy To add cs 10 mul 26 idiv add lineto
  Tt setlinewidth stroke
  grestore
} bd
/QT {
/Y22 exch store
/X22 exch store
/Y21 exch store
/X21 exch store
currentpoint
/Y21 load 2 mul add 3 div exch
/X21 load 2 mul add 3 div exch
/X21 load 2 mul /X22 load add 3 div
/Y21 load 2 mul /Y22 load add 3 div
/X22 load /Y22 load curveto
} bd
/SSPD {
dup length /d exch dict def
{
/v exch def
/k exch def
currentpagedevice k known {
/cpdv currentpagedevice k get def
v cpdv ne {
/upd false def
/nullv v type /nulltype eq def
/nullcpdv cpdv type /nulltype eq def
nullv nullcpdv or
{
/upd true def
} {
/sametype v type cpdv type eq def
sametype {
v type /arraytype eq {
/vlen v length def
/cpdvlen cpdv length def
vlen cpdvlen eq {
0 1 vlen 1 sub {
/i exch def
/obj v i get def
/cpdobj cpdv i get def
obj cpdobj ne {
/upd true def
exit
} if
} for
} {
/upd true def
} ifelse
} {
v type /dicttype eq {
v {
/dv exch def
/dk exch def
/cpddv cpdv dk get def
dv cpddv ne {
/upd true def
exit
} if
} forall
} {
/upd true def
} ifelse
} ifelse
} if
} ifelse
upd true eq {
d k v put
} if
} if
} if
} forall
d length 0 gt {
d setpagedevice
} if
} bd
/RE { % /NewFontName [NewEncodingArray] /FontName RE -
  findfont dup length dict begin
  {
    1 index /FID ne
    {def} {pop pop} ifelse
  } forall
  /Encoding exch def
  /FontName 1 index def
  currentdict definefont pop
  end
} bind def
%%EndResource
%%BeginResource: procset (Apache XML Graphics EPS ProcSet) 1.0 0
%%Version: 1.0 0
%%Copyright: (Copyright 2002-2003 The Apache Software Foundation. License terms: http://www.apache.org/licenses/LICENSE-2.0)
/BeginEPSF { %def
/b4_Inc_state save def         % Save state for cleanup
/dict_count countdictstack def % Count objects on dict stack
/op_count count 1 sub def      % Count objects on operand stack
userdict begin                 % Push userdict on dict stack
/showpage { } def              % Redefine showpage, { } = null proc
0 setgray 0 setlinecap         % Prepare graphics state
1 setlinewidth 0 setlinejoin
10 setmiterlimit [ ] 0 setdash newpath
/languagelevel where           % If level not equal to 1 then
{pop languagelevel             % set strokeadjust and
1 ne                           % overprint to their defaults.
{false setstrokeadjust false setoverprint
} if
} if
} bd
/EndEPSF { %def
count op_count sub {pop} repeat            % Clean up stacks
countdictstack dict_count sub {end} repeat
b4_Inc_state restore
} bd
%%EndResource
%FOPBeginFontDict
%%IncludeResource: font Courier-Bold
%%IncludeResource: font Helvetica
%%IncludeResource: font Courier-BoldOblique
%%IncludeResource: font Courier-Oblique
%%IncludeResource: font Times-Roman
%%IncludeResource: font Helvetica-BoldOblique
%%IncludeResource: font Helvetica-Bold
%%IncludeResource: font Helvetica-Oblique
%%IncludeResource: font Times-BoldItalic
%%IncludeResource: font Courier
%%IncludeResource: font Times-Italic
%%IncludeResource: font Times-Bold
%%IncludeResource: font Symbol
%%IncludeResource: font ZapfDingbats
%FOPEndFontDict
%%BeginResource: encoding WinAnsiEncoding
/WinAnsiEncoding [
/.notdef /.notdef /.notdef /.notdef /.notdef
/.notdef /.notdef /.notdef /.notdef /.notdef
/.notdef /.notdef /.notdef /.notdef /.notdef
/.notdef /.notdef /.notdef /.notdef /.notdef
/.notdef /.notdef /.notdef /.notdef /.notdef
/.notdef /.notdef /.notdef /.notdef /.notdef
/.notdef /.notdef /space /exclam /quotedbl
/numbersign /dollar /percent /ampersand /quotesingle
/parenleft /parenright /asterisk /plus /comma
/hyphen /period /slash /zero /one
/two /three /four /five /six
/seven /eight /nine /colon /semicolon
/less /equal /greater /question /at
/A /B /C /D /E
/F /G /H /I /J
/K /L /M /N /O
/P /Q /R /S /T
/U /V /W /X /Y
/Z /bracketleft /backslash /bracketright /asciicircum
/underscore /quoteleft /a /b /c
/d /e /f /g /h
/i /j /k /l /m
/n /o /p /q /r
/s /t /u /v /w
/x /y /z /braceleft /bar
/braceright /asciitilde /bullet /Euro /bullet
/quotesinglbase /florin /quotedblbase /ellipsis /dagger
/daggerdbl /circumflex /perthousand /Scaron /guilsinglleft
/OE /bullet /Zcaron /bullet /bullet
/quoteleft /quoteright /quotedblleft /quotedblright /bullet
/endash /emdash /asciitilde /trademark /scaron
/guilsinglright /oe /bullet /zcaron /Ydieresis
/space /exclamdown /cent /sterling /currency
/yen /brokenbar /section /dieresis /copyright
/ordfeminine /guillemotleft /logicalnot /sfthyphen /registered
/macron /degree /plusminus /twosuperior /threesuperior
/acute /mu /paragraph /middot /cedilla
/onesuperior /ordmasculine /guillemotright /onequarter /onehalf
/threequarters /questiondown /Agrave /Aacute /Acircumflex
/Atilde /Adieresis /Aring /AE /Ccedilla
/Egrave /Eacute /Ecircumflex /Edieresis /Igrave
/Iacute /Icircumflex /Idieresis /Eth /Ntilde
/Ograve /Oacute /Ocircumflex /Otilde /Odieresis
/multiply /Oslash /Ugrave /Uacute /Ucircumflex
/Udieresis /Yacute /Thorn /germandbls /agrave
/aacute /acircumflex /atilde /adieresis /aring
/ae /ccedilla /egrave /eacute /ecircumflex
/edieresis /igrave /iacute /icircumflex /idieresis
/eth /ntilde /ograve /oacute /ocircumflex
/otilde /odieresis /divide /oslash /ugrave
/uacute /ucircumflex /udieresis /yacute /thorn
/ydieresis
] def
%%EndResource
%FOPBeginFontReencode
/Courier-Bold findfont
dup length dict begin
  {1 index /FID ne {def} {pop pop} ifelse} forall
  /Encoding WinAnsiEncoding def
  currentdict
end
/Courier-Bold exch definefont pop
/Helvetica findfont
dup length dict begin
  {1 index /FID ne {def} {pop pop} ifelse} forall
  /Encoding WinAnsiEncoding def
  currentdict
end
/Helvetica exch definefont pop
/Courier-BoldOblique findfont
dup length dict begin
  {1 index /FID ne {def} {pop pop} ifelse} forall
  /Encoding WinAnsiEncoding def
  currentdict
end
/Courier-BoldOblique exch definefont pop
/Courier-Oblique findfont
dup length dict begin
  {1 index /FID ne {def} {pop pop} ifelse} forall
  /Encoding WinAnsiEncoding def
  currentdict
end
/Courier-Oblique exch definefont pop
/Times-Roman findfont
dup length dict begin
  {1 index /FID ne {def} {pop pop} ifelse} forall
  /Encoding WinAnsiEncoding def
  currentdict
end
/Times-Roman exch definefont pop
/Helvetica-BoldOblique findfont
dup length dict begin
  {1 index /FID ne {def} {pop pop} ifelse} forall
  /Encoding WinAnsiEncoding def
  currentdict
end
/Helvetica-BoldOblique exch definefont pop
/Helvetica-Bold findfont
dup length dict begin
  {1 index /FID ne {def} {pop pop} ifelse} forall
  /Encoding WinAnsiEncoding def
  currentdict
end
/Helvetica-Bold exch definefont pop
/Helvetica-Oblique findfont
dup length dict begin
  {1 index /FID ne {def} {pop pop} ifelse} forall
  /Encoding WinAnsiEncoding def
  currentdict
end
/Helvetica-Oblique exch definefont pop
/Times-BoldItalic findfont
dup length dict begin
  {1 index /FID ne {def} {pop pop} ifelse} forall
  /Encoding WinAnsiEncoding def
  currentdict
end
/Times-BoldItalic exch definefont pop
/Courier findfont
dup length dict begin
  {1 index /FID ne {def} {pop pop} ifelse} forall
  /Encoding WinAnsiEncoding def
  currentdict
end
/Courier exch definefont pop
/Times-Italic findfont
dup length dict begin
  {1 index /FID ne {def} {pop pop} ifelse} forall
  /Encoding WinAnsiEncoding def
  currentdict
end
/Times-Italic exch definefont pop
/Times-Bold findfont
dup length dict begin
  {1 index /FID ne {def} {pop pop} ifelse} forall
  /Encoding WinAnsiEncoding def
  currentdict
end
/Times-Bold exch definefont pop
%FOPEndFontReencode
%%EndProlog
%%Page: 1 1
%%PageBoundingBox: 0 0 420 315
%%BeginPageSetup
[1 0 0 -1 0 315] CT
%%EndPageSetup
GS
[0.75 0 0 0.75 0 0] CT
1 GC
N
0 0 560 420 re
f
GR
GS
[0.75 0 0 0.75 0 0] CT
1 GC
N
0 0 560 420 re
f
GR
GS
[0.75 0 0 0.75 0 0] CT
1 GC
N
73 190 M
260 190 L
260 125 L
73 125 L
cp
f
GR
GS
[0.75 0 0 0.75 0 0] CT
0.873 GC
[10 6] 0 setdash
2 LJ
0.667 LW
N
260 136.818 M
73 136.818 L
S
GR
GS
[0.75 0 0 0.75 0 0] CT
0.873 GC
[10 6] 0 setdash
2 LJ
0.667 LW
N
260 130.909 M
73 130.909 L
S
GR
GS
[0.75 0 0 0.75 0 0] CT
0.873 GC
[10 6] 0 setdash
2 LJ
0.667 LW
N
260 125 M
73 125 L
S
GR
GS
[0.75 0 0 0.75 124.87511 92.71875] CT
/Helvetica-Bold 7.333 F
GS
[1 0 0 1 0 0] CT
-73.5 -2 moveto 
1 -1 scale
(\(A\) Interactive task response latency) t 
GR
GR
GS
[0.75 0 0 0.75 0 0] CT
0.149 GC
1 LJ
0.667 LW
N
73 190 M
260 190 L
S
GR
GS
[0.75 0 0 0.75 0 0] CT
N
85.689 190 M
93.704 190 L
93.704 130.909 L
85.689 130.909 L
cp
f
GR
GS
[0.75 0 0 0.75 0 0] CT
N
132.439 190 M
140.454 190 L
140.454 127.092 L
132.439 127.092 L
cp
f
GR
GS
[0.75 0 0 0.75 0 0] CT
N
179.189 190 M
187.204 190 L
187.204 130.909 L
179.189 130.909 L
cp
f
GR
GS
[0.75 0 0 0.75 0 0] CT
N
225.939 190 M
233.954 190 L
233.954 127.494 L
225.939 127.494 L
cp
f
GR
GS
[0.75 0 0 0.75 0 0] CT
10.0 ML
0.667 LW
N
85.689 190 M
85.689 130.909 L
93.704 130.909 L
93.704 190 L
cp
S
GR
GS
[0.75 0 0 0.75 0 0] CT
10.0 ML
0.667 LW
N
132.439 190 M
132.439 127.092 L
140.454 127.092 L
140.454 190 L
cp
S
GR
GS
[0.75 0 0 0.75 0 0] CT
10.0 ML
0.667 LW
N
179.189 190 M
179.189 130.909 L
187.204 130.909 L
187.204 190 L
cp
S
GR
GS
[0.75 0 0 0.75 0 0] CT
10.0 ML
0.667 LW
N
225.939 190 M
225.939 127.494 L
233.954 127.494 L
233.954 190 L
cp
S
GR
GS
[0.75 0 0 0.75 0 0] CT
1 0.78 0.494 RC
N
99.046 190 M
107.061 190 L
107.061 129.136 L
99.046 129.136 L
cp
f
GR
GS
[0.75 0 0 0.75 0 0] CT
1 0.78 0.494 RC
N
145.796 190 M
153.811 190 L
153.811 127.541 L
145.796 127.541 L
cp
f
GR
GS
[0.75 0 0 0.75 0 0] CT
1 0.78 0.494 RC
N
192.546 190 M
200.561 190 L
200.561 134.543 L
192.546 134.543 L
cp
f
GR
GS
[0.75 0 0 0.75 0 0] CT
1 0.78 0.494 RC
N
239.296 190 M
247.311 190 L
247.311 132.445 L
239.296 132.445 L
cp
f
GR
GS
[0.75 0 0 0.75 0 0] CT
10.0 ML
0.667 LW
N
99.046 190 M
99.046 129.136 L
107.061 129.136 L
107.061 190 L
cp
S
GR
GS
[0.75 0 0 0.75 0 0] CT
10.0 ML
0.667 LW
N
145.796 190 M
145.796 127.541 L
153.811 127.541 L
153.811 190 L
cp
S
GR
GS
[0.75 0 0 0.75 0 0] CT
10.0 ML
0.667 LW
N
192.546 190 M
192.546 134.543 L
200.561 134.543 L
200.561 190 L
cp
S
GR
GS
[0.75 0 0 0.75 0 0] CT
10.0 ML
0.667 LW
N
239.296 190 M
239.296 132.445 L
247.311 132.445 L
247.311 190 L
cp
S
GR
GS
[0.75 0 0 0.75 0 0] CT
0.149 GC
2 setlinecap
1 LJ
0.667 LW
N
73 190 M
260 190 L
S
GR
GS
[0.75 0 0 0.75 0 0] CT
0.149 GC
2 setlinecap
1 LJ
0.667 LW
N
96.375 190 M
96.375 188.13 L
S
GR
GS
[0.75 0 0 0.75 0 0] CT
0.149 GC
2 setlinecap
1 LJ
0.667 LW
N
143.125 190 M
143.125 188.13 L
S
GR
GS
[0.75 0 0 0.75 0 0] CT
0.149 GC
2 setlinecap
1 LJ
0.667 LW
N
189.875 190 M
189.875 188.13 L
S
GR
GS
[0.75 0 0 0.75 0 0] CT
0.149 GC
2 setlinecap
1 LJ
0.667 LW
N
236.625 190 M
236.625 188.13 L
S
GR
GS
[0.75 0 0 0.75 72.28125 145.5] CT
0.149 GC
/Helvetica 6.667 F
GS
[1 0 0 1 0 0] CT
-13 7 moveto 
1 -1 scale
(Launch) t 
GR
GR
GS
[0.75 0 0 0.75 107.34375 145.5] CT
0.149 GC
/Helvetica 6.667 F
GS
[1 0 0 1 0 0] CT
-26.5 7 moveto 
1 -1 scale
(Launch+Install) t 
GR
GR
GS
[0.75 0 0 0.75 142.40625 145.5] CT
0.149 GC
/Helvetica 6.667 F
GS
[1 0 0 1 0 0] CT
-13.5 7 moveto 
1 -1 scale
(Bbench) t 
GR
GR
GS
[0.75 0 0 0.75 177.46875 145.5] CT
0.149 GC
/Helvetica 6.667 F
GS
[1 0 0 1 0 0] CT
-27 7 moveto 
1 -1 scale
(Bbench+Install) t 
GR
GR
GS
[0.75 0 0 0.75 0 0] CT
0.149 GC
2 setlinecap
1 LJ
0.667 LW
N
73 190 M
73 125 L
S
GR
GS
[0.75 0 0 0.75 0 0] CT
0.149 GC
2 setlinecap
1 LJ
0.667 LW
N
73 136.818 M
74.87 136.818 L
S
GR
GS
[0.75 0 0 0.75 0 0] CT
0.149 GC
2 setlinecap
1 LJ
0.667 LW
N
73 130.909 M
74.87 130.909 L
S
GR
GS
[0.75 0 0 0.75 0 0] CT
0.149 GC
2 setlinecap
1 LJ
0.667 LW
N
73 125 M
74.87 125 L
S
GR
GS
[0.75 0 0 0.75 51.75 102.61363] CT
0.149 GC
/Helvetica 6.667 F
GS
[1 0 0 1 0 0] CT
-12 2.5 moveto 
1 -1 scale
(0.9) t 
GR
GR
GS
[0.75 0 0 0.75 51.75 98.18182] CT
0.149 GC
/Helvetica 6.667 F
GS
[1 0 0 1 0 0] CT
-5 2.5 moveto 
1 -1 scale
(1) t 
GR
GR
GS
[0.75 0 0 0.75 51.75 93.75] CT
0.149 GC
/Helvetica 6.667 F
GS
[1 0 0 1 0 0] CT
-12 2.5 moveto 
1 -1 scale
(1.1) t 
GR
GR
GS
[0 -0.75 0.75 0 39.75 118.12498] CT
0.149 GC
/Helvetica 7.333 F
GS
[1 0 0 1 0 0] CT
-34 -2 moveto 
1 -1 scale
(Normalized latency) t 
GR
GR
GS
[0.75 0 0 0.75 0 0] CT
1 GC
N
73 109 M
73 97 L
246 97 L
246 109 L
cp
f
GR
GS
[0.75 0 0 0.75 82.5 77.07] CT
/Helvetica 6 F
GS
[1 0 0 1 0 0] CT
0 2 moveto 
1 -1 scale
(Baseline) t 
GR
GR
GS
[0.75 0 0 0.75 0 0] CT
N
77 105.592 M
77 99.928 L
107 99.928 L
107 105.592 L
cp
f
GR
GS
[0.75 0 0 0.75 0 0] CT
10.0 ML
0.667 LW
N
77 105.592 M
77 99.928 L
107 99.928 L
107 105.592 L
cp
S
GR
GS
[0.75 0 0 0.75 130.5 77.07] CT
/Helvetica 6 F
GS
[1 0 0 1 0 0] CT
0 2 moveto 
1 -1 scale
(Interactivity-aware OS) t 
GR
GR
GS
[0.75 0 0 0.75 0 0] CT
1 0.78 0.494 RC
N
141 105.592 M
141 99.928 L
171 99.928 L
171 105.592 L
cp
f
GR
GS
[0.75 0 0 0.75 0 0] CT
10.0 ML
0.667 LW
N
141 105.592 M
141 99.928 L
171 99.928 L
171 105.592 L
cp
S
GR
GS
[0.75 0 0 0.75 0 0] CT
0.149 GC
10.0 ML
0.667 LW
N
73 109 M
73 97 L
246 97 L
246 109 L
cp
S
GR
GS
[0.75 0 0 0.75 0 0] CT
1 GC
N
73 282 M
260 282 L
260 217 L
73 217 L
cp
f
GR
GS
[0.75 0 0 0.75 0 0] CT
0.873 GC
[10 6] 0 setdash
2 LJ
0.667 LW
N
260 257.625 M
73 257.625 L
S
GR
GS
[0.75 0 0 0.75 0 0] CT
0.873 GC
[10 6] 0 setdash
2 LJ
0.667 LW
N
260 249.5 M
73 249.5 L
S
GR
GS
[0.75 0 0 0.75 0 0] CT
0.873 GC
[10 6] 0 setdash
2 LJ
0.667 LW
N
260 241.375 M
73 241.375 L
S
GR
GS
[0.75 0 0 0.75 0 0] CT
0.873 GC
[10 6] 0 setdash
2 LJ
0.667 LW
N
260 233.25 M
73 233.25 L
S
GR
GS
[0.75 0 0 0.75 0 0] CT
0.873 GC
[10 6] 0 setdash
2 LJ
0.667 LW
N
260 225.125 M
73 225.125 L
S
GR
GS
[0.75 0 0 0.75 0 0] CT
0.873 GC
[10 6] 0 setdash
2 LJ
0.667 LW
N
260 217 M
73 217 L
S
GR
GS
[0.75 0 0 0.75 124.87511 161.71875] CT
/Helvetica-Bold 7.333 F
GS
[1 0 0 1 0 0] CT
-42 -2 moveto 
1 -1 scale
(\(B\) Total energy cost) t 
GR
GR
GS
[0.75 0 0 0.75 0 0] CT
0.149 GC
1 LJ
0.667 LW
N
73 282 M
260 282 L
S
GR
GS
[0.75 0 0 0.75 0 0] CT
N
85.689 282 M
93.704 282 L
93.704 241.375 L
85.689 241.375 L
cp
f
GR
GS
[0.75 0 0 0.75 0 0] CT
N
132.439 282 M
140.454 282 L
140.454 231.718 L
132.439 231.718 L
cp
f
GR
GS
[0.75 0 0 0.75 0 0] CT
N
179.189 282 M
187.204 282 L
187.204 241.375 L
179.189 241.375 L
cp
f
GR
GS
[0.75 0 0 0.75 0 0] CT
N
225.939 282 M
233.954 282 L
233.954 219.031 L
225.939 219.031 L
cp
f
GR
GS
[0.75 0 0 0.75 0 0] CT
10.0 ML
0.667 LW
N
85.689 282 M
85.689 241.375 L
93.704 241.375 L
93.704 282 L
cp
S
GR
GS
[0.75 0 0 0.75 0 0] CT
10.0 ML
0.667 LW
N
132.439 282 M
132.439 231.718 L
140.454 231.718 L
140.454 282 L
cp
S
GR
GS
[0.75 0 0 0.75 0 0] CT
10.0 ML
0.667 LW
N
179.189 282 M
179.189 241.375 L
187.204 241.375 L
187.204 282 L
cp
S
GR
GS
[0.75 0 0 0.75 0 0] CT
10.0 ML
0.667 LW
N
225.939 282 M
225.939 219.031 L
233.954 219.031 L
233.954 282 L
cp
S
GR
GS
[0.75 0 0 0.75 0 0] CT
1 0.78 0.494 RC
N
99.046 282 M
107.061 282 L
107.061 250.719 L
99.046 250.719 L
cp
f
GR
GS
[0.75 0 0 0.75 0 0] CT
1 0.78 0.494 RC
N
145.796 282 M
153.811 282 L
153.811 241.229 L
145.796 241.229 L
cp
f
GR
GS
[0.75 0 0 0.75 0 0] CT
1 0.78 0.494 RC
N
192.546 282 M
200.561 282 L
200.561 244.044 L
192.546 244.044 L
cp
f
GR
GS
[0.75 0 0 0.75 0 0] CT
1 0.78 0.494 RC
N
239.296 282 M
247.311 282 L
247.311 226.953 L
239.296 226.953 L
cp
f
GR
GS
[0.75 0 0 0.75 0 0] CT
10.0 ML
0.667 LW
N
99.046 282 M
99.046 250.719 L
107.061 250.719 L
107.061 282 L
cp
S
GR
GS
[0.75 0 0 0.75 0 0] CT
10.0 ML
0.667 LW
N
145.796 282 M
145.796 241.229 L
153.811 241.229 L
153.811 282 L
cp
S
GR
GS
[0.75 0 0 0.75 0 0] CT
10.0 ML
0.667 LW
N
192.546 282 M
192.546 244.044 L
200.561 244.044 L
200.561 282 L
cp
S
GR
GS
[0.75 0 0 0.75 0 0] CT
10.0 ML
0.667 LW
N
239.296 282 M
239.296 226.953 L
247.311 226.953 L
247.311 282 L
cp
S
GR
GS
[0.75 0 0 0.75 0 0] CT
0.149 GC
2 setlinecap
1 LJ
0.667 LW
N
73 282 M
260 282 L
S
GR
GS
[0.75 0 0 0.75 0 0] CT
0.149 GC
2 setlinecap
1 LJ
0.667 LW
N
96.375 282 M
96.375 280.13 L
S
GR
GS
[0.75 0 0 0.75 0 0] CT
0.149 GC
2 setlinecap
1 LJ
0.667 LW
N
143.125 282 M
143.125 280.13 L
S
GR
GS
[0.75 0 0 0.75 0 0] CT
0.149 GC
2 setlinecap
1 LJ
0.667 LW
N
189.875 282 M
189.875 280.13 L
S
GR
GS
[0.75 0 0 0.75 0 0] CT
0.149 GC
2 setlinecap
1 LJ
0.667 LW
N
236.625 282 M
236.625 280.13 L
S
GR
GS
[0.75 0 0 0.75 72.28125 214.5] CT
0.149 GC
/Helvetica 6.667 F
GS
[1 0 0 1 0 0] CT
-13 7 moveto 
1 -1 scale
(Launch) t 
GR
GR
GS
[0.75 0 0 0.75 107.34375 214.5] CT
0.149 GC
/Helvetica 6.667 F
GS
[1 0 0 1 0 0] CT
-26.5 7 moveto 
1 -1 scale
(Launch+Install) t 
GR
GR
GS
[0.75 0 0 0.75 142.40625 214.5] CT
0.149 GC
/Helvetica 6.667 F
GS
[1 0 0 1 0 0] CT
-13.5 7 moveto 
1 -1 scale
(Bbench) t 
GR
GR
GS
[0.75 0 0 0.75 177.46875 214.5] CT
0.149 GC
/Helvetica 6.667 F
GS
[1 0 0 1 0 0] CT
-27 7 moveto 
1 -1 scale
(Bbench+Install) t 
GR
GR
GS
[0.75 0 0 0.75 0 0] CT
0.149 GC
2 setlinecap
1 LJ
0.667 LW
N
73 282 M
73 217 L
S
GR
GS
[0.75 0 0 0.75 0 0] CT
0.149 GC
2 setlinecap
1 LJ
0.667 LW
N
73 257.625 M
74.87 257.625 L
S
GR
GS
[0.75 0 0 0.75 0 0] CT
0.149 GC
2 setlinecap
1 LJ
0.667 LW
N
73 249.5 M
74.87 249.5 L
S
GR
GS
[0.75 0 0 0.75 0 0] CT
0.149 GC
2 setlinecap
1 LJ
0.667 LW
N
73 241.375 M
74.87 241.375 L
S
GR
GS
[0.75 0 0 0.75 0 0] CT
0.149 GC
2 setlinecap
1 LJ
0.667 LW
N
73 233.25 M
74.87 233.25 L
S
GR
GS
[0.75 0 0 0.75 0 0] CT
0.149 GC
2 setlinecap
1 LJ
0.667 LW
N
73 225.125 M
74.87 225.125 L
S
GR
GS
[0.75 0 0 0.75 0 0] CT
0.149 GC
2 setlinecap
1 LJ
0.667 LW
N
73 217 M
74.87 217 L
S
GR
GS
[0.75 0 0 0.75 51.75 193.21875] CT
0.149 GC
/Helvetica 6.667 F
GS
[1 0 0 1 0 0] CT
-12 2.5 moveto 
1 -1 scale
(0.6) t 
GR
GR
GS
[0.75 0 0 0.75 51.75 187.125] CT
0.149 GC
/Helvetica 6.667 F
GS
[1 0 0 1 0 0] CT
-12 2.5 moveto 
1 -1 scale
(0.8) t 
GR
GR
GS
[0.75 0 0 0.75 51.75 181.03125] CT
0.149 GC
/Helvetica 6.667 F
GS
[1 0 0 1 0 0] CT
-5 2.5 moveto 
1 -1 scale
(1) t 
GR
GR
GS
[0.75 0 0 0.75 51.75 174.9375] CT
0.149 GC
/Helvetica 6.667 F
GS
[1 0 0 1 0 0] CT
-12 2.5 moveto 
1 -1 scale
(1.2) t 
GR
GR
GS
[0.75 0 0 0.75 51.75 168.84375] CT
0.149 GC
/Helvetica 6.667 F
GS
[1 0 0 1 0 0] CT
-12 2.5 moveto 
1 -1 scale
(1.4) t 
GR
GR
GS
[0.75 0 0 0.75 51.75 162.75] CT
0.149 GC
/Helvetica 6.667 F
GS
[1 0 0 1 0 0] CT
-12 2.5 moveto 
1 -1 scale
(1.6) t 
GR
GR
GS
[0 -0.75 0.75 0 39.75 187.12498] CT
0.149 GC
/Helvetica 7.333 F
GS
[1 0 0 1 0 0] CT
-33.5 -2 moveto 
1 -1 scale
(Normalized energy) t 
GR
GR
%%Trailer
%%Pages: 1
%%EOF
